Name,Sex,Equipment,Division,BodyweightKg,WeightClassKg,BirthYear,Squat1Kg,Squat2Kg,Squat3Kg,Best3SquatKg,Bench1Kg,Bench2Kg,Bench3Kg,Best3BenchKg,Deadlift1Kg,Deadlift2Kg,Deadlift3Kg,Best3DeadliftKg,TotalKg,Place,Event
Aila Kilmer,F,Raw,Sub-Juniors,90.1,84+,2005,77.5,82.5,87.5,87.5,45,50,-52.5,50,105,110,115,115,252.5,1,SBD
Paniz Khosroshahy,F,Raw,Juniors,79.75,84,1996,95,102.5,107.5,107.5,62.5,65,-67.5,65,130,137.5,-145,137.5,310,1,SBD
Vanessa Zingaro,F,Raw,Open,51.45,52,1990,137.5,140,-142.5,140,60,65,-67.5,65,140,150,157.5,157.5,362.5,1,SBD
Cam Luong,F,Raw,Open,47.1,52,1995,77.5,82.5,-87.5,82.5,42.5,45,47.5,47.5,92.5,97.5,102.5,102.5,232.5,2,SBD
Anna Yamashita,F,Raw,Open,71.55,72,1994,117.5,122.5,-125,122.5,55,57.5,60,60,137.5,145,150,150,332.5,1,SBD
Minette Meronyk,F,Raw,Open,70.3,72,1995,100,107.5,112.5,112.5,57.5,60,62.5,62.5,120,130,137.5,137.5,312.5,2,SBD
Monique Gallagher,F,Raw,Open,64.15,72,1986,87.5,-92.5,97.5,97.5,-45,45,-47.5,45,107.5,112.5,120,120,262.5,3,SBD
Brittany Etmanski,F,Raw,Open,68.65,72,1991,80,82.5,87.5,87.5,57.5,60,62.5,62.5,90,97.5,102.5,102.5,252.5,4,SBD
Elizabeth Arnold,F,Raw,Open,78.85,84,1993,87.5,92.5,100,100,55,62.5,65,65,130,137.5,145,145,310,1,SBD
Jacqueline Parr,F,Raw,Open,76.45,84,1982,-82.5,87.5,92.5,92.5,50,52.5,-57.5,52.5,97.5,105,107.5,107.5,252.5,2,SBD
Kaitlyn Murray,F,Raw,Open,104.1,84+,1989,95,100,107.5,107.5,52.5,57.5,62.5,62.5,110,115,135,135,305,1,SBD
Erin Taylor-Peckover,F,Raw,Masters 1,69,72,1972,-75,85,92.5,92.5,55,65,-67.5,65,100,110,122.5,122.5,280,1,SBD
Charlene James,F,Raw,Masters 1,76.35,84,1972,75,80,82.5,82.5,42.5,45,-50,45,100,107.5,112.5,112.5,240,1,SBD
Lyuba Minich,F,Raw,Masters 1,119.8,84+,1973,82.5,100,110,110,42.5,52.5,57.5,57.5,105,120,127.5,127.5,295,1,SBD
Susan Alisat,F,Raw,Masters 2,87.65,84+,1967,100,110,-115,110,52.5,55,-57.5,55,100,110,120,120,285,1,SBD
Anthony Dip,M,Raw,Sub-Juniors,58.5,59,2001,132.5,142.5,147.5,147.5,95,105,112.5,112.5,130,147.5,162.5,162.5,422.5,1,SBD
Ethan Chung,M,Raw,Sub-Juniors,68.65,74,2002,125,132.5,140,140,82.5,92.5,-100,92.5,132.5,140,147.5,147.5,380,1,SBD
Christoph Fusch,M,Raw,Sub-Juniors,102.05,105,2002,190,200,205,205,80,90,-95,90,220,230,-240,230,525,1,SBD
Carlos Ucat,M,Raw,Juniors,64.7,66,2000,130,135,142.5,142.5,85,92.5,95,95,155,160,162.5,162.5,400,1,SBD
Anthony Nemi,M,Raw,Juniors,73.45,74,1999,-195,-195,-195,,,,,,,,,,,DQ,SBD
Joseph Tran,M,Raw,Juniors,90.55,93,1999,195,205,-210,205,105,110,-115,110,210,220,230,230,545,1,SBD
Matthew Kruczek,M,Raw,Juniors,90.45,93,1998,165,175,182.5,182.5,117.5,125,130,130,195,207.5,215,215,527.5,2,SBD
Kyle Salvanera,M,Raw,Juniors,99.4,105,2000,165,172.5,185,185,102.5,105,117.5,117.5,187.5,205,225,225,527.5,1,SBD
McKenzie Arner,M,Raw,Juniors,112.7,120,1996,207.5,-220,220,220,-157.5,157.5,-165,157.5,260,277.5,290,290,667.5,1,SBD
Marlon Gomez,M,Raw,Open,108.15,120,1995,-200,212.5,220,220,137.5,-145,-150,137.5,225,240,250,250,607.5,2,SBD
Pete Barbeau,M,Raw,Open,58.45,59,1992,165,-175,-175,165,87.5,92.5,95,95,182.5,190,-197.5,190,450,1,SBD
John Fortich,M,Raw,Open,70.2,74,1990,140,142.5,147.5,147.5,87.5,90,92.5,92.5,-200,200,-225,200,440,1,SBD
Gavin Leung,M,Raw,Open,80.2,83,1994,195,205,212.5,212.5,130,140,145,145,215,227.5,240,240,597.5,1,SBD
Kareem Jelani,M,Raw,Open,77.35,83,1991,182.5,195,197.5,197.5,-122.5,-132.5,132.5,132.5,237.5,257.5,265,265,595,2,SBD
Zachary Ho Tom,M,Raw,Open,82.2,83,1994,185,192.5,-200,192.5,137.5,142.5,145,145,210,227.5,-237.5,227.5,565,3,SBD
Robin Macapagal,M,Raw,Open,80.75,83,1990,170,175,-190,175,97.5,105,-110,105,215,230,-240,230,510,4,SBD
Tony Noonan,M,Raw,Open,81,83,1991,167.5,175,185,185,-120,125,-127.5,125,192.5,200,-215,200,510,5,SBD
Syed Zain Abedin,M,Raw,Open,81.95,83,1989,-182.5,-182.5,182.5,182.5,105,107.5,110,110,-192.5,192.5,205,205,497.5,6,SBD
Paul Randhawa,M,Raw,Open,83,83,1992,-140,-140,145,145,87.5,92.5,97.5,97.5,180,195,200,200,442.5,7,SBD
James Webster,M,Raw,Open,78.75,83,1993,97.5,105,110,110,-77.5,-77.5,-77.5,,,,,,,DQ,SBD
Jared Maynard,M,Raw,Open,86.25,93,1990,175,182.5,187.5,187.5,105,-115,115,115,190,205,215,215,517.5,1,SBD
John Finnson,M,Raw,Open,90.85,93,1988,170,180,190,190,110,120,-140,120,205,-215,-215,205,515,2,SBD
Ryan DeMarco,M,Raw,Open,88.1,93,1990,-185,-185,185,185,90,95,102.5,102.5,-192.5,192.5,200,200,487.5,3,SBD
Shane Kelly,M,Raw,Open,100.65,105,1983,222.5,240,250,250,150,160,-165,160,232.5,252.5,-265,252.5,662.5,1,SBD
Curtis Boyd,M,Raw,Open,97.05,105,1993,192.5,202.5,210,210,122.5,130,-137.5,130,230,237.5,242.5,242.5,582.5,2,SBD
Jose Romero,M,Raw,Open,96.1,105,1994,187.5,205,220,220,112.5,120,-127.5,120,207.5,220,-230,220,560,3,SBD
William Nicholson,M,Raw,Open,98.75,105,1992,190,200,210,210,100,105,110,110,215,227.5,-235,227.5,547.5,4,SBD
Anthony Romain,M,Raw,Open,100.25,105,1994,155,165,170,170,125,132.5,-140,132.5,220,230,240,240,542.5,5,SBD
Stephen Quackenbush,M,Raw,Open,98.7,105,1984,177.5,187.5,-190,187.5,-125,-125,125,125,185,190,200,200,512.5,6,SBD
Jamie Donovan,M,Raw,Open,99.7,105,1980,182.5,187.5,192.5,192.5,107.5,112.5,-120,112.5,185,192.5,205,205,510,7,SBD
Elvir Kadiric,M,Raw,Open,98.7,105,1995,142.5,165,-185,165,85,102.5,120,120,185,200,-225,200,485,8,SBD
Jacob Buzzell,M,Raw,Open,103.9,105,1997,240,-252.5,-252.5,240,-147.5,-147.5,-147.5,,-215,,,,,DQ,SBD
Brad Nickle,M,Raw,Open,108.5,120,1995,197.5,217.5,227.5,227.5,155,175,-182.5,175,245,275,282.5,282.5,685,1,SBD
Brian Dickie,M,Raw,Open,107.75,120,1994,145,155,162.5,162.5,110,-120,125,125,187.5,200,215,215,502.5,2,SBD
Alex Leistra,M,Raw,Open,137.4,120+,1994,230,245,255,255,147.5,157.5,-165,157.5,237.5,255,272.5,272.5,685,1,SBD
Jake Goulding,M,Raw,Open,190,120+,1992,210,230,250,250,135,145,-155,145,255,270,-285,270,665,2,SBD
Aboosma Alexander,M,Raw,Open,130.65,120+,1997,190,200,210,210,115,127.5,137.5,137.5,187.5,195,-200,195,542.5,3,SBD
Phil Kelsey,M,Raw,Masters 1,89.9,93,1976,180,190,-200,190,90,-95,-97.5,90,217.5,227.5,235,235,515,1,SBD
Pavel Kobyakov,M,Raw,Masters 1,106.65,120,1978,175,187.5,202.5,202.5,110,120,-130,120,190,210,230,230,552.5,1,SBD
Aidan Kennah,M,Raw,Juniors,116.9,120,1996,,,,,120,-125,-125,120,,,,,120,1,B
Travis Priest,M,Raw,Open,92.15,93,1992,,,,,167.5,172.5,177.5,177.5,,,,,177.5,1,B
Terry Armstrong,M,Raw,Masters 2,100.35,105,1960,,,,,-125,125,-137.5,125,,,,,125,1,B
