Place,Name,State,WeightClassKg,BodyweightKg,BirthDate,Age,Squat1Kg,Squat2Kg,Squat3Kg,Best3SquatKg,Bench1Kg,Bench2Kg,Bench3Kg,Best3BenchKg,Deadlift1Kg,Deadlift2Kg,Deadlift3Kg,Best3DeadliftKg,TotalKg,Squat4Kg,Event,Equipment,Sex,Division,Tested
1,Jacqueline Vargas,CA,60,59.3,,22,90,105,110,110,-75,80,85,85,105,112.5,125,125,320,,SBD,Raw,F,Juniors 20-23,Yes
1,Giselle Loera,CA,75,72.8,,23,90,95,97.5,97.5,57.5,62.5,65,65,132.5,140,-150,140,302.5,,SBD,Raw,F,Juniors 20-23,Yes
1,Odalys De La Cruz,CA,82.5,81.8,,23,-125,125,-127.5,125,80,-85,-85,80,152.5,160,170,170,375,,SBD,Raw,F,Juniors 20-23,Yes
2,Elisa Serna,CA,82.5,80.1,,23,142.5,147.5,-152.5,147.5,55,60,-65,60,147.5,155,162.5,162.5,370,,SBD,Raw,F,Juniors 20-23,Yes
3,Fabiola Gonzalez,CA,82.5,80.7,,23,125,135,145,145,60,65,-72.5,65,135,145,157.5,157.5,367.5,,SBD,Raw,F,Juniors 20-23,Yes
1,Natalie Do,CA,52,49.4,,25,115,122.5,127.5,127.5,60,62.5,67.5,67.5,160,168,-172.5,168,363,,SBD,Raw,F,Open,Yes
2,Duyen Nguyen,CA,52,51.1,,26,105,-120,125,125,50,57.5,60,60,120,140,152.5,152.5,337.5,,SBD,Raw,F,Open,Yes
1,Brianna Flores,CA,56,53.9,,27,105,120,130,130,65,72.5,77.5,77.5,120,135,147.5,147.5,355,,SBD,Raw,F,Open,Yes
1,Tania Moreno Galvan,CA,60,58.4,,27,105,110,112.5,112.5,55,57.5,60,60,125,-135,-135,125,297.5,,SBD,Raw,F,Open,Yes
2,Jordyn Razo,CA,60,59.4,,25,-85,85,-92.5,85,50,55,-57.5,55,115,125,132.5,132.5,272.5,,SBD,Raw,F,Open,Yes
1,Theasil Arana,CA,67.5,64.6,,28,95,105,115,115,45,-47.5,47.5,47.5,105,117.5,122.5,122.5,285,,SBD,Raw,F,Open,Yes
2,Kim Chahat,CA,67.5,61.9,,32,85,92.5,97.5,97.5,-52.5,-55,55,55,112.5,125,-137.5,125,277.5,,SBD,Raw,F,Open,Yes
1,Kimberly Saenz,CA,75,74.3,,28,152.5,160,167.5,167.5,55,57.5,60,60,157.5,162.5,170,170,397.5,,SBD,Raw,F,Open,Yes
2,Alison Guzman,CA,75,73.5,,26,142.5,-147.5,147.5,147.5,55,62.5,-65,62.5,125,130,137.5,137.5,347.5,,SBD,Raw,F,Open,Yes
1,Elisa Serna,CA,82.5,80.1,,23,142.5,147.5,-152.5,147.5,55,60,-65,60,147.5,155,162.5,162.5,370,,SBD,Raw,F,Open,Yes
1,Lauren Martinez Carlos,CA,90,88.7,,26,-100,105,112.5,112.5,47.5,50,-57.5,50,120,127.5,137.5,137.5,300,,SBD,Raw,F,Open,Yes
1,Nick Loera,CA,67.5,65,,19,110,120,130,130,70,75,80,80,147.5,155,165,165,375,,SBD,Raw,M,Juniors 18-19,Yes
1,Robert Phouthavong,CA,75,73.1,,18,155,162.5,175,175,122.5,127.5,132.5,132.5,187.5,-195,-200,187.5,495,,SBD,Raw,M,Juniors 18-19,Yes
2,Walker Below,CA,75,71.9,,18,155,157.5,162.5,162.5,-92.5,97.5,102.5,102.5,177.5,185,190,190,455,,SBD,Raw,M,Juniors 18-19,Yes
DQ,Andrew Martinez,CA,75,74.8,,23,210,-220,-220,210,-160,-165,-165,,,,,,,,SBD,Raw,M,Juniors 20-23,Yes
1,David Lopez,CA,82.5,79.8,,16,127.5,-137.5,137.5,137.5,-70,70,-82.5,70,175,185,190,190,397.5,,SBD,Raw,M,Juniors 16-17,Yes
1,Alessandro Castillo Quevedo,CA,82.5,80.6,,19,-210,-210,210,210,130,137.5,-145,137.5,272.5,285,-290,285,632.5,,SBD,Raw,M,Juniors 18-19,Yes
2,Javier Valenzuela,CA,82.5,81.2,,18,-210,210,217.5,217.5,115,120,125,125,220,230,-235,230,572.5,,SBD,Raw,M,Juniors 18-19,Yes
1,Marcus Ruiz,CA,82.5,81.3,,23,212.5,220,230,230,150,155,160,160,250,-257.5,257.5,257.5,647.5,,SBD,Raw,M,Juniors 20-23,Yes
2,Jose Vasquez,CA,82.5,82.1,,23,235,-240,,235,145,150,-152.5,150,247.5,-260,-260,247.5,632.5,,SBD,Raw,M,Juniors 20-23,Yes
3,Nikolas Ohara,CA,82.5,80.7,,22,190,200,205,205,115,122.5,127.5,127.5,220,235,245,245,577.5,,SBD,Raw,M,Juniors 20-23,Yes
4,Bryan Jabines,CA,82.5,81.5,,21,175,185,190,190,105,115,117.5,117.5,225,237.5,250,250,557.5,,SBD,Raw,M,Juniors 20-23,Yes
1,Christopher Garcia,CA,90,83.4,,18,145,162.5,177.5,177.5,107.5,115,-130,115,190,195,200,200,492.5,,SBD,Raw,M,Juniors 18-19,Yes
1,Darren Li,CA,100,99.4,,21,-170,175,182.5,182.5,-135,142.5,150,150,175,-190,205,205,537.5,,SBD,Raw,M,Juniors 20-23,Yes
1,Jacob Barajas,CA,110,106.2,,19,165,180,195,195,120,127.5,135,135,170,190,205,205,535,,SBD,Raw,M,Juniors 18-19,Yes
1,Jared Ruiz,CA,125,119.3,,19,245,255,260,260,165,167.5,-172.5,167.5,-287.5,-287.5,287.5,287.5,715,,SBD,Raw,M,Juniors 18-19,Yes
1,Qui Luong,CA,60,58.4,,25,135,142.5,150,150,75,77.5,80,80,175,185,195,195,425,,SBD,Raw,M,Open,Yes
1,William Pham,CA,75,74.4,,24,210,220,227.5,227.5,130,135,140,140,257.5,267.5,280,280,647.5,,SBD,Raw,M,Open,Yes
2,Valdemar Lara,CA,75,72.1,,26,170,175,-182.5,175,122.5,132.5,140,140,185,195,207.5,207.5,522.5,,SBD,Raw,M,Open,Yes
3,Gustavo Castro,CA,75,72.4,,36,142.5,150,157.5,157.5,105,110,115,115,195,205,215,215,487.5,,SBD,Raw,M,Open,Yes
4,Juan David Palomares,CA,75,74.8,,24,135,-145,145,145,77.5,85,-95,85,185,195,-205,195,425,,SBD,Raw,M,Open,Yes
1,Marcus Ruiz,CA,82.5,81.3,,23,212.5,220,230,230,150,155,160,160,250,-257.5,257.5,257.5,647.5,,SBD,Raw,M,Open,Yes
2,Jose Vasquez,CA,82.5,82.1,,23,235,-240,,235,145,150,-152.5,150,247.5,-260,-260,247.5,632.5,,SBD,Raw,M,Open,Yes
3,Julian Valderrama,CA,82.5,81.4,,23,190,197.5,-207.5,197.5,137.5,145,-152.5,145,220,227.5,232.5,232.5,575,,SBD,Raw,M,Open,Yes
4,Joshua Valdez,CA,82.5,81.1,,28,195,205,215,215,-110,120,,120,200,215,227.5,227.5,562.5,,SBD,Raw,M,Open,Yes
1,Dorian Gonzalez,CA,90,89.2,,30,145,160,182.5,182.5,105,-112.5,117.5,117.5,180,197.5,212.5,212.5,512.5,,SBD,Raw,M,Open,Yes
2,Christopher Garcia,CA,90,83.4,,18,145,162.5,177.5,177.5,107.5,115,-130,115,190,195,200,200,492.5,,SBD,Raw,M,Open,Yes
DQ,Matthew Laterza,CA,90,86.1,,28,200,-205,-205,200,-140,-140,-140,,265,-275,275,275,,,SBD,Raw,M,Open,Yes
1,Julian Perales,CA,100,97.7,,25,257.5,265,-267.5,265,-170,170,177.5,177.5,260,-270,277.5,277.5,720,,SBD,Raw,M,Open,Yes
1,Jorence Gelvezon,CA,110,103.7,,27,185,192.5,200,200,-142.5,145,150,150,225,240,250,250,600,,SBD,Raw,M,Open,Yes
2,Brandon Doan,CA,110,108.3,,24,185,195,210,210,125,132.5,145,145,197.5,215,230,230,585,,SBD,Raw,M,Open,Yes
1,Phongsathorn Churnakoses,CA,140,137.8,,41,242.5,252.5,260,260,155,167.5,175,175,280,282.5,302.5,302.5,737.5,267.5,SBD,Raw,M,Open,Yes
1,Pedro Gonzalez,CA,140+,148,,25,-210,220,227.5,227.5,-140,-140,140,140,235,242.5,-250,242.5,610,,SBD,Raw,M,Open,Yes
1,Gustavo Castro,CA,75,72.4,,36,142.5,150,157.5,157.5,105,110,115,115,195,205,215,215,487.5,,SBD,Raw,M,Submasters 35-39,Yes
1,Dan Beranl,CA,75,69.7,,66,100,105,110,110,100,-105,108.5,108.5,135,140.5,142.5,142.5,361,,SBD,Raw,M,Masters 65-69,Yes
1,Phongsathorn Churnakoses,CA,140,137.8,,41,242.5,252.5,260,260,155,167.5,175,175,280,282.5,302.5,302.5,737.5,267.5,SBD,Raw,M,Masters 40-44,Yes
1,Windy Xiong,CA,75,73.5,,26,142.5,150,-157.5,150,-50,50,-52.5,50,140,147.5,155,155,355,,SBD,Wraps,F,Open,Yes
1,Elizabeth Millan,CA,100,98.9,,32,-182.5,182.5,,182.5,92.5,,,92.5,182.5,-202.5,,182.5,457.5,,SBD,Wraps,F,Open,Yes
1,Reis Willard,CA,82.5,80.8,,19,212.5,-225,-225,212.5,135,142.5,-150,142.5,232.5,247.5,255,255,610,,SBD,Wraps,M,Juniors 18-19,Yes
1,Reis Willard,CA,82.5,80.8,,19,,,,,135,142.5,-150,142.5,,,,,142.5,,B,Raw,M,Juniors 18-19,Yes
1,Dan Beranl,CA,75,69.7,,66,,,,,100,-105,108.5,108.5,,,,,108.5,,B,Raw,M,Masters 65-69,Yes
1,Chris Dodson,CA,140,132,,57,,,,,147.5,167.5,-182.5,167.5,,,,,167.5,,B,Raw,M,Masters 55-59,Yes
