Division,WeightClassKg,Place,Name,Team,BodyweightKg,Best3SquatKg,Best3BenchKg,Best3DeadliftKg,TotalKg,Equipment,Event,Sex
Boys,51.71,1,Austen Campbell,Sour Lake Hardin-Jefferson,48.26,136.08,72.57,149.69,358.34,Single-ply,SBD,M
Boys,51.71,2,Edgar Interiano,Cleveland,51.44,102.06,43.09,111.13,256.28,Single-ply,SBD,M
Boys,55.79,1,Auston Mize,Cleveland,55.2,149.69,88.45,158.76,396.89,Single-ply,SBD,M
Boys,55.79,2,David Kelley,Cleveland,55.02,120.2,86.18,138.35,344.73,Single-ply,SBD,M
Boys,55.79,DQ,Gavin Clark,Cleveland,53.12,,,,,Single-ply,SBD,M
Boys,59.87,1,Jesus Garcia #4,Cleveland,59.74,127.01,97.52,145.15,369.68,Single-ply,SBD,M
Boys,59.87,2,Devin Leal,Cleveland,58.47,120.2,77.11,131.54,328.85,Single-ply,SBD,M
Boys,59.87,3,Tedric Bogany,Cleveland,59.51,92.99,52.16,127.01,272.16,Single-ply,SBD,M
Boys,59.87,DQ,Sean Bond,Hamshire-Fannett,59.87,,,,,Single-ply,SBD,M
Boys,67.13,1,Cameron Moody,Shepherd,66.77,195.04,117.93,231.33,544.31,Single-ply,SBD,M
Boys,67.13,2,Eric Perez,Cleveland,66.81,158.76,92.99,183.7,435.45,Single-ply,SBD,M
Boys,67.13,3,Jose Salazar,Cleveland,66.9,154.22,88.45,161.03,403.7,Single-ply,SBD,M
Boys,67.13,4,Chad Currie,Coldspring-Oakhurst,64.95,158.76,90.72,149.69,399.16,Single-ply,SBD,M
Boys,67.13,5,Cameron Carson,Shepherd,64.86,124.74,77.11,156.49,358.34,Single-ply,SBD,M
Boys,67.13,6,Juan Carapia,Shepherd,65.77,136.08,68.04,149.69,353.8,Single-ply,SBD,M
Boys,67.13,7,Kyle Whidelon,Cleveland,62.6,120.2,72.57,147.42,340.19,Single-ply,SBD,M
Boys,67.13,8,Johnny Doty,Cleveland,66.59,117.93,68.04,142.88,328.85,Single-ply,SBD,M
Boys,67.13,9,Will Whitaker,Shepherd,60.33,115.67,65.77,115.67,297.1,Single-ply,SBD,M
Boys,67.13,10,Jose Vasquez,Shepherd,65.59,77.11,56.7,111.13,244.94,Single-ply,SBD,M
Boys,67.13,DQ,Mauricio Luna,Cleveland,66.32,,,,,Single-ply,SBD,M
Boys,74.84,1,Eddie Cross,Coldspring-Oakhurst,72.3,172.37,113.4,199.58,485.34,Single-ply,SBD,M
Boys,74.84,2,John Salcido,Cleveland,74.71,174.63,111.13,170.1,455.86,Single-ply,SBD,M
Boys,74.84,3,Charlie Hayman,Sour Lake Hardin-Jefferson,73.66,163.29,90.72,192.78,446.79,Single-ply,SBD,M
Boys,74.84,4,Montrail Searles,Cleveland,74.16,129.27,68.04,138.35,335.66,Single-ply,SBD,M
Boys,74.84,5,James Harrison,Shepherd,68.67,124.74,63.5,145.15,333.39,Single-ply,SBD,M
Boys,74.84,6,Jacob Galle,Sour Lake Hardin-Jefferson,71.49,113.4,72.57,140.61,326.59,Single-ply,SBD,M
Boys,74.84,DQ,Alan Asher,Sour Lake Hardin-Jefferson,74.84,,,,,Single-ply,SBD,M
Boys,74.84,DQ,Tristan Conner,Sour Lake Hardin-Jefferson,74.84,,,,,Single-ply,SBD,M
Boys,74.84,DQ,Christian Randell,Cleveland,74.84,,,,,Single-ply,SBD,M
Boys,74.84,DQ,Juan Cazaris,Cleveland,68.63,,,,,Single-ply,SBD,M
Boys,82.1,1,Jaime Morales,Cleveland,82.01,195.04,106.59,201.85,503.49,Single-ply,SBD,M
Boys,82.1,2,Matthew Peddycoat,Hamshire-Fannett,80.38,183.7,102.06,167.83,453.59,Single-ply,SBD,M
Boys,82.1,3,Julian Viera,Cleveland,80.01,165.56,102.06,163.29,430.91,Single-ply,SBD,M
Boys,82.1,4,Kameron O'Bannion,Sour Lake Hardin-Jefferson,76.48,158.76,90.72,165.56,415.04,Single-ply,SBD,M
Boys,89.81,1,Timoteo Flores,Sour Lake Hardin-Jefferson,89.45,233.6,149.69,226.8,610.08,Single-ply,SBD,M
Boys,89.81,2,Andrew Harrison,Coldspring-Oakhurst,85.28,226.8,124.74,249.48,601.01,Single-ply,SBD,M
Boys,89.81,3,Tyler Shirey,Shepherd,88.9,188.24,149.69,208.65,546.58,Single-ply,SBD,M
Boys,89.81,4,Ethan Benestante,Coldspring-Oakhurst,82.28,190.51,133.81,201.85,526.17,Single-ply,SBD,M
Boys,89.81,5,Austin Cartwright,Cleveland,84.19,199.58,102.06,213.19,514.83,Single-ply,SBD,M
Boys,89.81,6,Hunter McNair,Sour Lake Hardin-Jefferson,85.87,188.24,102.06,199.58,489.88,Single-ply,SBD,M
Boys,89.81,7,Luke Evans #1,Sour Lake Hardin-Jefferson,89.27,129.27,83.91,154.22,367.41,Single-ply,SBD,M
Boys,89.81,8,Kolin McCullough,Sour Lake Hardin-Jefferson,89.81,117.93,86.18,142.88,347,Single-ply,SBD,M
Boys,89.81,DQ,Thomas Lopez,Sour Lake Hardin-Jefferson,89.81,,,,,Single-ply,SBD,M
Boys,89.81,DQ,Michael Yates,Cleveland,88.13,190.51,,,,Single-ply,SBD,M
Boys,99.79,1,Waylon Bogany,Cleveland,90.54,226.8,124.74,226.8,578.33,Single-ply,SBD,M
Boys,99.79,2,Cordel Anderson,Cleveland,93.49,167.83,115.67,172.37,455.86,Single-ply,SBD,M
Boys,99.79,3,Dillon Myers,Hamshire-Fannett,97.61,176.9,106.59,172.37,455.86,Single-ply,SBD,M
Boys,99.79,4,Shameron Steele,Shepherd,93.62,140.61,86.18,161.03,387.82,Single-ply,SBD,M
Boys,109.77,1,Zane Conner,Sour Lake Hardin-Jefferson,107.95,249.48,149.69,276.69,675.85,Single-ply,SBD,M
Boys,109.77,2,Alvaro Andrade,Hamshire-Fannett,109.5,201.85,136.08,183.7,521.63,Single-ply,SBD,M
Boys,109.77,3,Dakota Bell,Hamshire-Fannett,102.06,170.1,104.33,147.42,421.84,Single-ply,SBD,M
Boys,124.74,1,Zach Taylor,Shepherd,119.84,226.8,115.67,190.51,532.97,Single-ply,SBD,M
Boys,124.74,2,David McCoy,Sour Lake Hardin-Jefferson,121.93,215.46,113.4,206.38,535.24,Single-ply,SBD,M
Boys,124.74,3,Cameron Guidry,Hamshire-Fannett,110.77,170.1,104.33,161.03,435.45,Single-ply,SBD,M
Boys,124.74+,1,Codi Leger,Hamshire-Fannett,127.1,222.26,117.93,192.78,532.97,Single-ply,SBD,M
Boys,124.74+,2,Michael Jauer,Sour Lake Hardin-Jefferson,150.59,192.78,131.54,188.24,512.56,Single-ply,SBD,M
Boys,124.74+,3,Dylan Arie,Shepherd,146.87,165.56,92.99,163.29,421.84,Single-ply,SBD,M
Boys,124.74+,4,Deshaun Fields,Cleveland,126.28,165.56,83.91,154.22,403.7,Single-ply,SBD,M
