Name,Sex,Event,Equipment,Division,BodyweightKg,WeightClassKg,Squat1Kg,Squat2Kg,Squat3Kg,Best3SquatKg,Bench1Kg,Bench2Kg,Bench3Kg,Best3BenchKg,Deadlift1Kg,Deadlift2Kg,Deadlift3Kg,Best3DeadliftKg,TotalKg,Place,State
Elizabeth Robinson,F,SBD,Raw,F-C-N,81.5,84,95,102.5,110,110,45,50,-55,50,127.5,137.5,145,145,305,1,NW
Francesca Fernandes,F,SBD,Raw,F-C-N,65.8,72,90,-97.5,102.5,102.5,50,-57.5,57.5,57.5,90,100,110,110,270,1,NW
Jessica Stenstrom,F,SBD,Raw,F-C-N,58.6,63,60,70,-80,70,37.5,42.5,-47.5,42.5,70,-80,-80,70,182.5,2,NW
Josephine Rourke,F,SBD,Raw,F-C-N,70.2,72,75,87.5,92.5,92.5,50,57.5,-60,57.5,100,115,120,120,270,2,NW
Megan Cotcher,F,SBD,Raw,F-C-N,51.3,52,82.5,92.5,-97.5,92.5,47.5,-55,55,55,100,117.5,122.5,122.5,270,1,NW
Sara Bradley,F,SBD,Raw,F-C-N,61.1,63,-90,90,105,105,47.5,-55,-55,47.5,110,120,-125,120,272.5,1,NW
Alex Foden,F,SBD,Raw,F-C-Open,100.6,84+,150,160,170,170,75,80,83.5,83.5,150,160,167.5,167.5,421,1,NW
Aliesha Ludlam,F,SBD,Raw,F-C-G,58,63,65,-70,-72.5,65,35,-37.5,-37.5,35,85,90,95,95,195,G,NW
Alison Parkinson,F,SBD,Raw,F-C-Open,61,63,95,-102.5,-102.5,95,35,-40,40,40,105,115,-125,115,250,2,NW
April Howe,F,SBD,Raw,F-C-Open,56.1,57,125,131,135,135,65,70,-73,70,125,135,142.5,142.5,347.5,1,NW
Charlotte Doughton,F,SBD,Raw,F-C-G,52.9,57,100,-110,-110,100,52.5,55,-60,55,120,130,132.5,132.5,287.5,G,NW
Helen Jones,F,SBD,Raw,F-C-Open,102.3,84+,140,150,152.5,152.5,62.5,67.5,-70,67.5,137.5,145,-150,145,365,3,NW
Laura Battersby,F,SBD,Raw,F-C-Open,68.6,72,80,85,90,90,47.5,-52.5,52.5,52.5,120,127.5,-132.5,127.5,270,6,NW
Lynzi Shepherd,F,SBD,Raw,F-C-Open,69,72,117.5,125,130,130,55,60,-62.5,60,125,135,140,140,330,2,NW
Mariella Fisher,F,SBD,Raw,F-C-Open,64.2,72,140,150,-153,150,70,,,70,165,180,190,190,410,1,NW
Munira Patel,F,SBD,Raw,F-C-Open,59,63,70,80,85,85,40,-45,-45,40,110,117.5,-125,117.5,242.5,3,NW
Natalie Banks,F,SBD,Raw,F-C-Open,51.4,52,-92.5,-92.5,-92.5,,55,57.5,-60,57.5,135,140,145,145,,DQ,NW
Nichola McCloud,F,SBD,Raw,F-C-Open,78.9,84,95,105,-110,105,45,50,-57.5,50,115,125,132.5,132.5,287.5,2,NW
Rebecca Woods,F,SBD,Raw,F-C-Open,70.6,72,105,110,-117.5,110,57.5,62.5,-65,62.5,120,127.5,130,130,302.5,4,NW
Scarlett Portues,F,SBD,Raw,F-C-Open,77.1,84,-135,135,145,145,70,75,-77.5,75,145,150,-155,150,370,1,NW
Shannon Clifford,F,SBD,Raw,F-C-Open,62.9,63,115,120,125,125,60,65,-67.5,65,150,160,165,165,355,1,NW
Steevi Pugh,F,SBD,Raw,F-C-Open,97.5,84+,165,170,175,175,55,60,-65,60,130,140,145,145,380,2,NW
Toni Price,F,SBD,Raw,F-C-Open,70.6,72,100,-105,-105,100,50,55,60,60,127.5,135,-140,135,295,5,NW
Victoria Savage,F,SBD,Raw,F-C-Open,66,72,115,122.5,127.5,127.5,55,57.5,60,60,130,137.5,-150.5,137.5,325,3,NW
Pete Hodgson,M,SBD,Raw,M-C-N,80,83,150,160,165,165,115,120,125,125,200,210,220,220,510,1,NW
Kieran Perry,M,SBD,Raw,M-C-N,81.6,83,145,157.5,165,165,100,110,,110,210,-230,230,230,505,2,NW
Mark Hutchings,M,SBD,Raw,M-C-N,81.2,83,-152.5,157.5,167.5,167.5,115,120,122.5,122.5,202.5,212.5,-220,212.5,502.5,3,NW
James Chapman #1,M,SBD,Raw,M-C-N,81.4,83,160,-170,-170,160,115,-120,-120,115,210,220,-230,220,495,4,NW
Arron O'Neill,M,SBD,Raw,M-C-N,77.9,83,160,175,-182.5,175,115,122.5,-130,122.5,170,190,-205,190,487.5,5,NW
Andreas Arestidou,M,SBD,Raw,M-C-N,82.2,83,117.5,125,132.5,132.5,115,120,125,125,170,180,185,185,442.5,6,NW
Stephen Eldridge,M,SBD,Raw,M-C-N,79.5,83,145,155,160,160,85,-90,-90,85,150,160,170,170,415,7,NW
Robert Wright,M,SBD,Raw,M-C-N,85.7,93,130,142.5,152.5,152.5,90,-95,95,95,160,180,-190,180,427.5,1,NW
Pete Robinson,M,SBD,Raw,M-C-N,99.5,105,170,182.5,190,190,95,-100,100,100,190,205,-215,205,495,1,NW
Adam Mack #1,M,SBD,Raw,M-C-Open,72.1,74,165,172.5,-177.5,172.5,110,-115,115,115,200,210,220,220,507.5,1,NW
Daniel Whittall,M,SBD,Raw,M-C-Open,74,74,160,-170,-170,160,102.5,-107.5,-107.5,102.5,195,210,-215,210,472.5,2,NW
Chris Eaton,M,SBD,Raw,M-C-Open,69.5,74,115,125,135,135,100,110,115,115,160,175,190,190,440,3,NW
Michael Giles,M,SBD,Raw,M-C-Open,80.9,83,205,-215,-215,205,130,140,-145,140,220,-240,-240,220,565,1,NW
Mathew Beenham,M,SBD,Raw,M-C-Open,80.1,83,170,180,187.5,187.5,120,125,-127.5,125,200,210,215,215,527.5,2,NW
Danny Taylor,M,SBD,Raw,M-C-Open,79.8,83,155,165,175,175,112.5,-117.5,,112.5,175,190,-200,190,477.5,3,NW
Adam Blockley,M,SBD,Raw,M-C-Open,81,83,150,-160,160,160,122.5,127.5,-130,127.5,170,-172.5,172.5,172.5,460,4,NW
Joseph Corbin,M,B,Raw,M-C-Open,82,83,,,,,120,-127.5,-127.5,120,,,,,120,1,NW
Bohdan Bon,M,B,Raw,M-C-G,80.2,83,,,,,155,167.5,172.5,172.5,,,,,172.5,G,
Tristan Kennedy,M,SBD,Raw,M-C-Open,90.9,93,192.5,202.5,207.5,207.5,105,110,-115,110,257.5,275,-282.5,275,592.5,1,NW
Neil Hardy,M,SBD,Raw,M-C-Open,89.5,93,175,-185,-185,175,-127.5,127.5,130,130,220,-225,-225,220,525,2,NW
Sam Emmitt,M,SBD,Raw,M-C-Open,89.1,93,170,182.5,187.5,187.5,100,107.5,112.5,112.5,180,195,205,205,505,3,NW
Liam Kerin,M,SBD,Raw,M-C-Open,85.8,93,157.5,162.5,-170,162.5,100,107.5,-112.5,107.5,205,217.5,227.5,227.5,497.5,4,NW
Charles Banks,M,SBD,Raw,M-C-Open,101.5,105,190,200,-205,200,155,165,-171,165,190,-200,,190,555,1,NW
Alexander Halliwell,M,SBD,Raw,M-C-Open,110,120,230,240,250,250,145,150,155,155,245,260,-265,260,665,1,NW
Josh Hayford,M,SBD,Raw,M-C-Open,118.7,120,205,215,225,225,125,132.5,137.5,137.5,250,265,275,275,637.5,2,NW
Jordon Siddall,M,SBD,Raw,M-C-Open,118.5,120,190,205,-212.5,205,142.5,147.5,155,155,230,245,-252.5,245,605,3,NW
Chris Peters,M,SBD,Raw,M-C-Open,109.5,120,190,200,205,205,135,142.5,-145,142.5,220,230,235,235,582.5,4,NW
